{
  "questions": [
    {
      "id": 1,
      "step": 1,
      "text": "What year was JavaScript invented?",
      "bid": "500$",
      "answers": [
        {
          "id": 1,
          "correct": true,
          "value": "1995 year",
          "option": "A"
        },
        {
          "id": 2,
          "correct": false,
          "value": "1992 year",
          "option": "B"
        },
        {
          "id": 3,
          "correct": false,
          "value": "1990 year",
          "option": "C"
        },
        {
          "id": 4,
          "correct": false,
          "value": "2000 year",
          "option": "D"
        }
      ]
    },
    {
      "id": 2,
      "step": 2,
      "text": "Who created the Java Script?",
      "bid": "1,000$",
      "answers": [
        {
          "id": 5,
          "correct": false,
          "value": "Dan Abramov",
          "option": "A"
        },
        {
          "id": 6,
          "correct": true,
          "value": "Eich Brendan",
          "option": "B"
        },
        {
          "id": 7,
          "correct": false,
          "value": "Linus Torvalds",
          "option": "C"
        },
        {
          "id": 8,
          "correct": false,
          "value": "Guido van Rossum",
          "option": "D"
        }
      ]
    },
    {
      "id": 3,
      "step": 3,
      "text": "Who created the Redux?",
      "bid": "2,000$",
      "answers": [
        {
          "id": 9,
          "correct": true,
          "value": "Dan Abramov",
          "option": "A"
        },
        {
          "id": 10,
          "correct": false,
          "value": "Linus Torvalds",
          "option": "B"
        },
        {
          "id": 11,
          "correct": false,
          "value": "James Gosling",
          "option": "C"
        },
        {
          "id": 12,
          "correct": false,
          "value": "Anders Hejlsberg",
          "option": "D"
        }
      ]
    },
    {
      "id": 4,
      "step": 4,
      "text": "What company owns React?",
      "bid": "4,000$",
      "answers": [
        {
          "id": 13,
          "correct": false,
          "value": "Google",
          "option": "A"
        },
        {
          "id": 14,
          "correct": false,
          "value": "Amazon",
          "option": "B"
        },
        {
          "id": 15,
          "correct": false,
          "value": "Netflix",
          "option": "C"
        },
        {
          "id": 16,
          "correct": true,
          "value": "Facebook",
          "option": "D"
        }
      ]
    },
    {
      "id": 5,
      "step": 5,
      "text": "What year was React released?",
      "bid": "8,000$",
      "answers": [
        {
          "id": 17,
          "correct": false,
          "value": "2009 year",
          "option": "A"
        },
        {
          "id": 18,
          "correct": true,
          "value": "2013 year",
          "option": "B"
        },
        {
          "id": 19,
          "correct": false,
          "value": "2011 year",
          "option": "C"
        },
        {
          "id": 20,
          "correct": false,
          "value": "2014 year",
          "option": "D"
        }
      ]
    },
    {
      "id": 6,
      "step": 6,
      "text": "What is the latest version of React?",
      "bid": "16,000$",
      "answers": [
        {
          "id": 21,
          "correct": false,
          "value": "16.0.0",
          "option": "A"
        },
        {
          "id": 22,
          "correct": false,
          "value": "17.4.0",
          "option": "B"
        },
        {
          "id": 23,
          "correct": true,
          "value": "18.2.0",
          "option": "C"
        },
        {
          "id": 24,
          "correct": false,
          "value": "19.1.0",
          "option": "D"
        }
      ]
    },
    {
      "id": 7,
      "step": 7,
      "text": "What is a State Manager?",
      "bid": "32,000$",
      "answers": [
        {
          "id": 25,
          "correct": true,
          "value": "Redux",
          "option": "A"
        },
        {
          "id": 26,
          "correct": false,
          "value": "Vue",
          "option": "B"
        },
        {
          "id": 27,
          "correct": false,
          "value": "PHP",
          "option": "C"
        },
        {
          "id": 28,
          "correct": false,
          "value": "Webpack",
          "option": "D"
        }
      ]
    },
    {
      "id": 8,
      "step": 8,
      "text": "Which language is single threaded?",
      "bid": "64,000$",
      "answers": [
        {
          "id": 29,
          "correct": false,
          "value": "Java",
          "option": "A"
        },
        {
          "id": 30,
          "correct": false,
          "value": "C#",
          "option": "B"
        },
        {
          "id": 31,
          "correct": true,
          "value": "Java Script",
          "option": "C"
        },
        {
          "id": 32,
          "correct": false,
          "value": "Python",
          "option": "D"
        }
      ]
    },
    {
      "id": 9,
      "step": 9,
      "text": "What year was Angular 2.0 released?",
      "bid": "125,000$",
      "answers": [
        {
          "id": 33,
          "correct": true,
          "value": "2016 year",
          "option": "A"
        },
        {
          "id": 34,
          "correct": false,
          "value": "2012 year",
          "option": "B"
        },
        {
          "id": 35,
          "correct": false,
          "value": "2010 year",
          "option": "C"
        },
        {
          "id": 36,
          "correct": false,
          "value": "2014 year",
          "option": "D"
        }
      ]
    },
    {
      "id": 10,
      "step": 10,
      "text": "What company owns Angular?",
      "bid": "250,000$",
      "answers": [
        {
          "id": 37,
          "correct": true,
          "value": "Google",
          "option": "A"
        },
        {
          "id": 38,
          "correct": false,
          "value": "Facebook",
          "option": "B"
        },
        {
          "id": 39,
          "correct": false,
          "value": "Amazon",
          "option": "C"
        },
        {
          "id": 40,
          "correct": false,
          "value": "Netflix",
          "option": "D"
        }
      ]
    },
    {
      "id": 11,
      "step": 11,
      "text": "What is the oldest language?",
      "bid": "500,000$",
      "answers": [
        {
          "id": 41,
          "correct": true,
          "value": "Python",
          "option": "A"
        },
        {
          "id": 42,
          "correct": false,
          "value": "Go",
          "option": "B"
        },
        {
          "id": 43,
          "correct": false,
          "value": "Java",
          "option": "C"
        },
        {
          "id": 44,
          "correct": false,
          "value": "C#",
          "option": "D"
        }
      ]
    },
    {
      "id": 12,
      "step": 12,
      "text": "Most popular programming language in 2022 by Stack Overflow ?",
      "bid": "1,000,000$",
      "answers": [
        {
          "id": 45,
          "correct": false,
          "value": "Go",
          "option": "A"
        },
        {
          "id": 46,
          "correct": false,
          "value": "Rust",
          "option": "B"
        },
        {
          "id": 47,
          "correct": true,
          "value": "Java Script",
          "option": "C"
        },
        {
          "id": 48,
          "correct": false,
          "value": "Python",
          "option": "D"
        }
      ]
    }
  ]
}
